<mxfile host="app.diagrams.net" modified="2021-01-31T12:38:36.323Z" agent="5.0 (Windows NT 10.0; Win64; x64) AppleWebKit/537.36 (KHTML, like Gecko) Chrome/88.0.4324.104 Safari/537.36" etag="dt3r8v9sYUIEKRyQThM3" version="14.2.7" type="gitlab">
  <diagram id="qVPSMpLh7edeXtfCm4au" name="Page-1">
    <mxGraphModel dx="1422" dy="705" grid="1" gridSize="10" guides="1" tooltips="1" connect="1" arrows="1" fold="1" page="1" pageScale="1" pageWidth="827" pageHeight="1169" math="0" shadow="0">
      <root>
        <mxCell id="0" />
        <mxCell id="1" parent="0" />
        <mxCell id="f_4Qy006sMegdfRIJEq5-1" value="" style="whiteSpace=wrap;html=1;rounded=0;" vertex="1" parent="1">
          <mxGeometry x="124" y="220" width="580" height="460" as="geometry" />
        </mxCell>
        <mxCell id="f_4Qy006sMegdfRIJEq5-2" style="edgeStyle=orthogonalEdgeStyle;orthogonalLoop=1;jettySize=auto;html=1;exitX=0.25;exitY=1;exitDx=0;exitDy=0;entryX=0.5;entryY=0;entryDx=0;entryDy=0;endArrow=classicThin;endFill=1;" edge="1" parent="1" source="f_4Qy006sMegdfRIJEq5-4" target="f_4Qy006sMegdfRIJEq5-8">
          <mxGeometry relative="1" as="geometry">
            <mxPoint x="384" y="440" as="sourcePoint" />
          </mxGeometry>
        </mxCell>
        <mxCell id="f_4Qy006sMegdfRIJEq5-3" style="edgeStyle=orthogonalEdgeStyle;orthogonalLoop=1;jettySize=auto;html=1;exitX=0.75;exitY=1;exitDx=0;exitDy=0;endArrow=classicThin;endFill=1;" edge="1" parent="1" source="f_4Qy006sMegdfRIJEq5-4" target="f_4Qy006sMegdfRIJEq5-9">
          <mxGeometry relative="1" as="geometry">
            <mxPoint x="444" y="440" as="sourcePoint" />
          </mxGeometry>
        </mxCell>
        <mxCell id="f_4Qy006sMegdfRIJEq5-4" value="&lt;b&gt;&lt;font color=&quot;#002057&quot;&gt;Service: ClusterIP&lt;br&gt;temperature-sensor&lt;/font&gt;&lt;br&gt;&lt;/b&gt;" style="whiteSpace=wrap;html=1;fillColor=#f5f5f5;strokeColor=#666666;fontColor=#333333;strokeWidth=2;rounded=1;" vertex="1" parent="1">
          <mxGeometry x="354" y="390" width="120" height="110" as="geometry" />
        </mxCell>
        <mxCell id="f_4Qy006sMegdfRIJEq5-5" style="edgeStyle=orthogonalEdgeStyle;orthogonalLoop=1;jettySize=auto;html=1;exitX=0.5;exitY=1;exitDx=0;exitDy=0;exitPerimeter=0;endArrow=classicThin;endFill=1;entryX=0.5;entryY=0;entryDx=0;entryDy=0;" edge="1" parent="1" source="f_4Qy006sMegdfRIJEq5-7" target="f_4Qy006sMegdfRIJEq5-12">
          <mxGeometry relative="1" as="geometry" />
        </mxCell>
        <mxCell id="f_4Qy006sMegdfRIJEq5-6" value="192.168.1.83/temperature" style="edgeLabel;html=1;align=center;verticalAlign=middle;resizable=0;points=[];fontSize=14;fontColor=#002057;fontStyle=1" vertex="1" connectable="0" parent="f_4Qy006sMegdfRIJEq5-5">
          <mxGeometry x="-0.2211" y="4" relative="1" as="geometry">
            <mxPoint x="82" y="3" as="offset" />
          </mxGeometry>
        </mxCell>
        <mxCell id="f_4Qy006sMegdfRIJEq5-7" value="" style="aspect=fixed;pointerEvents=1;shadow=0;dashed=0;html=1;strokeColor=none;labelPosition=center;verticalLabelPosition=bottom;verticalAlign=top;align=center;shape=mxgraph.azure.computer;fillColor=#002057;rounded=1;" vertex="1" parent="1">
          <mxGeometry x="380.66" y="80" width="66.67" height="60" as="geometry" />
        </mxCell>
        <mxCell id="f_4Qy006sMegdfRIJEq5-8" value="&lt;b&gt;&lt;font color=&quot;#002057&quot;&gt;Pod 1&lt;br&gt;temperature-sensor&lt;br&gt;Port: 3000&lt;/font&gt;&lt;/b&gt;" style="whiteSpace=wrap;html=1;fillColor=#fff2cc;strokeColor=#d6b656;strokeWidth=2;rounded=1;" vertex="1" parent="1">
          <mxGeometry x="200" y="540" width="120" height="110" as="geometry" />
        </mxCell>
        <mxCell id="f_4Qy006sMegdfRIJEq5-9" value="&lt;b&gt;&lt;font&gt;Pod 2&lt;br&gt;temperature-sensor&lt;br&gt;&lt;/font&gt;Port: 3000&lt;br&gt;&lt;/b&gt;" style="whiteSpace=wrap;html=1;fillColor=#fff2cc;strokeColor=#d6b656;strokeWidth=2;rounded=1;fontColor=#002057;" vertex="1" parent="1">
          <mxGeometry x="520" y="540" width="120" height="110" as="geometry" />
        </mxCell>
        <mxCell id="f_4Qy006sMegdfRIJEq5-10" value="Kubernetes Cluster" style="text;html=1;strokeColor=none;fillColor=none;align=center;verticalAlign=middle;whiteSpace=wrap;rounded=0;fontStyle=1;fontColor=#002057;fontSize=14;" vertex="1" parent="1">
          <mxGeometry x="140" y="250" width="150" height="20" as="geometry" />
        </mxCell>
        <mxCell id="f_4Qy006sMegdfRIJEq5-16" value="&lt;b&gt;&lt;font style=&quot;font-size: 13px&quot; color=&quot;#002057&quot;&gt;/temperature&lt;/font&gt;&lt;/b&gt;" style="edgeStyle=orthogonalEdgeStyle;rounded=0;orthogonalLoop=1;jettySize=auto;html=1;exitX=0.5;exitY=1;exitDx=0;exitDy=0;" edge="1" parent="1">
          <mxGeometry x="-0.1429" y="46" relative="1" as="geometry">
            <mxPoint x="414" y="320" as="sourcePoint" />
            <mxPoint x="414" y="390" as="targetPoint" />
            <mxPoint as="offset" />
          </mxGeometry>
        </mxCell>
        <mxCell id="f_4Qy006sMegdfRIJEq5-12" value="&lt;b style=&quot;font-size: 13px&quot;&gt;&lt;font color=&quot;#002057&quot;&gt;Ingress Controller&lt;br&gt;&lt;br&gt;Nginx&lt;/font&gt;&lt;br&gt;&lt;/b&gt;" style="whiteSpace=wrap;html=1;fillColor=#d5e8d4;strokeColor=#82b366;strokeWidth=2;rounded=1;" vertex="1" parent="1">
          <mxGeometry x="354" y="210" width="120" height="110" as="geometry" />
        </mxCell>
      </root>
    </mxGraphModel>
  </diagram>
</mxfile>
