<mxfile host="app.diagrams.net" modified="2021-01-10T18:54:14.658Z" agent="5.0 (Windows NT 10.0; Win64; x64) AppleWebKit/537.36 (KHTML, like Gecko) Chrome/87.0.4280.88 Safari/537.36" etag="U7LiWMVQ_XGk_VnPJPBp" version="14.1.3" type="gitlab">
  <diagram id="TKUKRS2rCC9k-Fm5edYR" name="Page-1">
    <mxGraphModel dx="1422" dy="762" grid="1" gridSize="10" guides="1" tooltips="1" connect="1" arrows="1" fold="1" page="1" pageScale="1" pageWidth="827" pageHeight="1169" math="0" shadow="0">
      <root>
        <mxCell id="0" />
        <mxCell id="1" parent="0" />
        <mxCell id="wMyC07EirVuss9V8NN6r-26" value="" style="rounded=0;whiteSpace=wrap;html=1;strokeColor=#000000;strokeWidth=2;fillColor=none;gradientColor=none;" parent="1" vertex="1">
          <mxGeometry x="660" y="540" width="246.24" height="200" as="geometry" />
        </mxCell>
        <mxCell id="wMyC07EirVuss9V8NN6r-23" value="" style="rounded=0;whiteSpace=wrap;html=1;strokeColor=#000000;strokeWidth=2;fillColor=none;gradientColor=none;" parent="1" vertex="1">
          <mxGeometry x="660" y="270" width="246.24" height="200" as="geometry" />
        </mxCell>
        <mxCell id="wMyC07EirVuss9V8NN6r-20" value="" style="shape=hexagon;perimeter=hexagonPerimeter2;whiteSpace=wrap;html=1;fixedSize=1;strokeColor=#000000;strokeWidth=2;gradientColor=none;fillColor=none;size=50;rotation=0;" parent="1" vertex="1">
          <mxGeometry x="67.5" y="260" width="245" height="220" as="geometry" />
        </mxCell>
        <mxCell id="wMyC07EirVuss9V8NN6r-21" value="" style="whiteSpace=wrap;html=1;aspect=fixed;strokeColor=#000000;strokeWidth=2;fillColor=none;gradientColor=none;" parent="1" vertex="1">
          <mxGeometry x="400" y="282.5" width="175" height="175" as="geometry" />
        </mxCell>
        <mxCell id="wMyC07EirVuss9V8NN6r-2" value="" style="outlineConnect=0;fontColor=#232F3E;gradientColor=none;strokeColor=#232F3E;fillColor=#ffffff;dashed=0;verticalLabelPosition=bottom;verticalAlign=top;align=center;html=1;fontSize=12;fontStyle=0;aspect=fixed;shape=mxgraph.aws4.resourceIcon;resIcon=mxgraph.aws4.car;" parent="1" vertex="1">
          <mxGeometry x="150" y="270" width="80" height="80" as="geometry" />
        </mxCell>
        <mxCell id="wMyC07EirVuss9V8NN6r-3" value="" style="outlineConnect=0;fontColor=#232F3E;gradientColor=none;strokeColor=#232F3E;fillColor=#ffffff;dashed=0;verticalLabelPosition=bottom;verticalAlign=top;align=center;html=1;fontSize=12;fontStyle=0;aspect=fixed;shape=mxgraph.aws4.resourceIcon;resIcon=mxgraph.aws4.lightbulb;" parent="1" vertex="1">
          <mxGeometry x="100" y="350" width="80" height="80" as="geometry" />
        </mxCell>
        <mxCell id="wMyC07EirVuss9V8NN6r-6" value="" style="outlineConnect=0;fontColor=#232F3E;gradientColor=none;strokeColor=#232F3E;fillColor=#ffffff;dashed=0;verticalLabelPosition=bottom;verticalAlign=top;align=center;html=1;fontSize=12;fontStyle=0;aspect=fixed;shape=mxgraph.aws4.resourceIcon;resIcon=mxgraph.aws4.windfarm;" parent="1" vertex="1">
          <mxGeometry x="200" y="350" width="80" height="80" as="geometry" />
        </mxCell>
        <mxCell id="wMyC07EirVuss9V8NN6r-7" value="" style="fontColor=#0066CC;verticalAlign=top;verticalLabelPosition=bottom;labelPosition=center;align=center;html=1;outlineConnect=0;fillColor=#CCCCCC;gradientDirection=north;strokeWidth=2;shape=mxgraph.networks.wireless_hub;" parent="1" vertex="1">
          <mxGeometry x="437.5" y="300" width="100" height="85" as="geometry" />
        </mxCell>
        <mxCell id="wMyC07EirVuss9V8NN6r-15" value="" style="group" parent="1" vertex="1" connectable="0">
          <mxGeometry x="681.24" y="310" width="203.76" height="92" as="geometry" />
        </mxCell>
        <mxCell id="wMyC07EirVuss9V8NN6r-9" value="" style="pointerEvents=1;shadow=0;dashed=0;html=1;strokeColor=none;aspect=fixed;labelPosition=center;verticalLabelPosition=bottom;verticalAlign=top;align=center;outlineConnect=0;shape=mxgraph.vvd.cloud_computing;fillColor=#000000;" parent="wMyC07EirVuss9V8NN6r-15" vertex="1">
          <mxGeometry width="143.76" height="92" as="geometry" />
        </mxCell>
        <mxCell id="wMyC07EirVuss9V8NN6r-14" value="" style="group;strokeWidth=3;" parent="wMyC07EirVuss9V8NN6r-15" vertex="1" connectable="0">
          <mxGeometry x="143.76" width="60" height="90" as="geometry" />
        </mxCell>
        <mxCell id="wMyC07EirVuss9V8NN6r-13" value="" style="shape=cylinder3;whiteSpace=wrap;html=1;boundedLbl=1;backgroundOutline=1;size=15;strokeColor=#000000;strokeWidth=3;gradientColor=none;fillColor=#FFFFFF;" parent="wMyC07EirVuss9V8NN6r-14" vertex="1">
          <mxGeometry width="60" height="90" as="geometry" />
        </mxCell>
        <mxCell id="wMyC07EirVuss9V8NN6r-11" value="" style="shape=cylinder3;whiteSpace=wrap;html=1;boundedLbl=1;backgroundOutline=1;size=15;strokeColor=#000000;strokeWidth=3;gradientColor=none;fillColor=#FFFFFF;" parent="wMyC07EirVuss9V8NN6r-14" vertex="1">
          <mxGeometry width="60" height="70" as="geometry" />
        </mxCell>
        <mxCell id="wMyC07EirVuss9V8NN6r-12" value="" style="shape=cylinder3;whiteSpace=wrap;html=1;boundedLbl=1;backgroundOutline=1;size=15;strokeColor=#000000;strokeWidth=3;gradientColor=none;fillColor=#FFFFFF;" parent="wMyC07EirVuss9V8NN6r-14" vertex="1">
          <mxGeometry width="60" height="50" as="geometry" />
        </mxCell>
        <mxCell id="wMyC07EirVuss9V8NN6r-17" value="" style="pointerEvents=1;shadow=0;dashed=0;html=1;strokeColor=none;labelPosition=center;verticalLabelPosition=bottom;verticalAlign=top;outlineConnect=0;align=center;shape=mxgraph.office.devices.cell_phone_android_standalone;aspect=fixed;fillColor=#1A1A1A;" parent="1" vertex="1">
          <mxGeometry x="829.1800000000001" y="585" width="45.82" height="84" as="geometry" />
        </mxCell>
        <mxCell id="wMyC07EirVuss9V8NN6r-19" value="" style="pointerEvents=1;shadow=0;dashed=0;html=1;strokeColor=none;labelPosition=center;verticalLabelPosition=bottom;verticalAlign=top;outlineConnect=0;align=center;shape=mxgraph.office.devices.laptop;aspect=fixed;fillColor=#1A1A1A;" parent="1" vertex="1">
          <mxGeometry x="681.24" y="588.1" width="138" height="80.9" as="geometry" />
        </mxCell>
        <mxCell id="wMyC07EirVuss9V8NN6r-33" style="edgeStyle=orthogonalEdgeStyle;rounded=0;orthogonalLoop=1;jettySize=auto;html=1;exitX=1;exitY=0.5;exitDx=0;exitDy=0;fontSize=15;fontColor=#002057;strokeWidth=2;startArrow=block;startFill=1;endArrow=block;endFill=1;" parent="1" source="wMyC07EirVuss9V8NN6r-20" target="wMyC07EirVuss9V8NN6r-21" edge="1">
          <mxGeometry relative="1" as="geometry" />
        </mxCell>
        <mxCell id="wMyC07EirVuss9V8NN6r-34" style="edgeStyle=orthogonalEdgeStyle;rounded=0;orthogonalLoop=1;jettySize=auto;html=1;exitX=1;exitY=0.5;exitDx=0;exitDy=0;entryX=0;entryY=0.5;entryDx=0;entryDy=0;fontSize=15;fontColor=#002057;strokeWidth=2;startArrow=block;startFill=1;endArrow=block;endFill=1;" parent="1" source="wMyC07EirVuss9V8NN6r-21" target="wMyC07EirVuss9V8NN6r-23" edge="1">
          <mxGeometry relative="1" as="geometry" />
        </mxCell>
        <mxCell id="wMyC07EirVuss9V8NN6r-35" style="edgeStyle=orthogonalEdgeStyle;rounded=0;orthogonalLoop=1;jettySize=auto;html=1;exitX=0.5;exitY=1;exitDx=0;exitDy=0;entryX=0.5;entryY=0;entryDx=0;entryDy=0;fontSize=15;fontColor=#002057;strokeWidth=2;startArrow=block;startFill=1;endArrow=block;endFill=1;" parent="1" source="wMyC07EirVuss9V8NN6r-23" target="wMyC07EirVuss9V8NN6r-26" edge="1">
          <mxGeometry relative="1" as="geometry" />
        </mxCell>
        <mxCell id="wMyC07EirVuss9V8NN6r-29" value="Sensors&lt;br style=&quot;font-size: 15px;&quot;&gt;Actuators" style="text;html=1;strokeColor=none;fillColor=none;align=center;verticalAlign=middle;whiteSpace=wrap;rounded=0;fontStyle=1;fontSize=15;fontColor=#002057;" parent="1" vertex="1">
          <mxGeometry x="170" y="438" width="40" height="20" as="geometry" />
        </mxCell>
        <mxCell id="wMyC07EirVuss9V8NN6r-30" value="Gateways" style="text;html=1;strokeColor=none;fillColor=none;align=center;verticalAlign=middle;whiteSpace=wrap;rounded=0;fontStyle=1;fontSize=15;fontColor=#002057;" parent="1" vertex="1">
          <mxGeometry x="467.5" y="418" width="40" height="20" as="geometry" />
        </mxCell>
        <mxCell id="wMyC07EirVuss9V8NN6r-31" value="Cloud Storage" style="text;html=1;strokeColor=none;fillColor=none;align=center;verticalAlign=middle;whiteSpace=wrap;rounded=0;fontStyle=1;fontSize=15;fontColor=#002057;" parent="1" vertex="1">
          <mxGeometry x="718.12" y="428" width="130" height="20" as="geometry" />
        </mxCell>
        <mxCell id="wMyC07EirVuss9V8NN6r-32" value="Applications" style="text;html=1;strokeColor=none;fillColor=none;align=center;verticalAlign=middle;whiteSpace=wrap;rounded=0;fontStyle=1;fontSize=15;fontColor=#002057;" parent="1" vertex="1">
          <mxGeometry x="718.12" y="690" width="130" height="20" as="geometry" />
        </mxCell>
      </root>
    </mxGraphModel>
  </diagram>
</mxfile>
